{
  "_embedded" : {
    "laws" : [ {
      "id" : 41,
      "status" : "IDEA",
      "description" : "5CMC1jgw Lorem ipsum dolor sit amet, consectetur adipiscing elit, sed do eiusmod tempor incididunt ut labore et dolore magna aliqua. Ut enim ad minim veniam, quis nostrud exercitation ullamco laboris nisi ut aliquip ex ea commodo consequat. Duis aute irure dolor in reprehenderit in ",
      "initialProposal" : false,
      "reachedQuorumAt" : null,
      "votingEndsAt" : null,
      "createdAt" : "2017-10-27T06:46:46.212+0000",
      "updatedAt" : "2017-10-27T06:46:46.212+0000",
      "createdBy" : {
        "createdAt" : "2017-10-27T06:46:44.752+0000",
        "updatedAt" : "2017-10-27T06:46:44.752+0000",
        "id" : 1,
        "email" : "testuser0@liquido.de",
        "profile" : {
          "name" : "Test User0",
          "website" : "http://www.liquido.de",
          "picture" : "/static/img/Avatar_32x32.jpeg"
        }
      },
      "area" : {
        "createdAt" : "2017-10-27T06:46:45.614+0000",
        "updatedAt" : "2017-10-27T06:46:45.614+0000",
        "id" : 25,
        "title" : "Area 0",
        "description" : "Nice description for test area #0"
      },
      "numSupporters" : 2,
      "title" : "Idea 0 that suggest that we definitely need a longer title for ideas",
      "numCompetingProposals" : 0,
      "supportedByCurrentUser" : true,
      "votingStartsAt" : null,
      "_links" : {
        "self" : {
          "href" : "http://localhost:8080/liquido/v2/laws/41"
        },
        "law" : {
          "href" : "http://localhost:8080/liquido/v2/laws/41{?projection}",
          "templated" : true
        },
        "poll" : {
          "href" : "http://localhost:8080/liquido/v2/laws/41/poll"
        },
        "supporters" : {
          "href" : "http://localhost:8080/liquido/v2/laws/41/supporters"
        },
        "createdBy" : {
          "href" : "http://localhost:8080/liquido/v2/laws/41/createdBy"
        },
        "area" : {
          "href" : "http://localhost:8080/liquido/v2/laws/41/area"
        }
      }
    }, {
      "id" : 42,
      "status" : "IDEA",
      "description" : "nMwx73S7 Lorem ipsum dolor sit amet, consectetur adipiscing elit, sed do eiusmod tempor incididunt ut labore et dolore magna aliqua. Ut enim ad minim veniam, quis nostrud exercita",
      "initialProposal" : false,
      "reachedQuorumAt" : null,
      "votingEndsAt" : null,
      "createdAt" : "2017-10-27T06:46:46.341+0000",
      "updatedAt" : "2017-10-27T06:46:46.341+0000",
      "createdBy" : {
        "createdAt" : "2017-10-27T06:46:45.252+0000",
        "updatedAt" : "2017-10-27T06:46:45.252+0000",
        "id" : 2,
        "email" : "testuser1@liquido.de",
        "profile" : {
          "name" : "Test User1",
          "website" : "http://www.liquido.de",
          "picture" : "/static/img/Avatar_32x32.jpeg"
        }
      },
      "area" : {
        "createdAt" : "2017-10-27T06:46:45.614+0000",
        "updatedAt" : "2017-10-27T06:46:45.614+0000",
        "id" : 25,
        "title" : "Area 0",
        "description" : "Nice description for test area #0"
      },
      "numSupporters" : 0,
      "title" : "Idea 1 that suggest that we definitely need a longer title for ideas",
      "numCompetingProposals" : 0,
      "supportedByCurrentUser" : false,
      "votingStartsAt" : null,
      "_links" : {
        "self" : {
          "href" : "http://localhost:8080/liquido/v2/laws/42"
        },
        "law" : {
          "href" : "http://localhost:8080/liquido/v2/laws/42{?projection}",
          "templated" : true
        },
        "poll" : {
          "href" : "http://localhost:8080/liquido/v2/laws/42/poll"
        },
        "supporters" : {
          "href" : "http://localhost:8080/liquido/v2/laws/42/supporters"
        },
        "createdBy" : {
          "href" : "http://localhost:8080/liquido/v2/laws/42/createdBy"
        },
        "area" : {
          "href" : "http://localhost:8080/liquido/v2/laws/42/area"
        }
      }
    }, {
      "id" : 43,
      "status" : "IDEA",
      "description" : "RluuCcyt Lorem ipsum dolor sit amet, consectetur adipiscing elit, sed do eiusmod tempor incididunt ut labore et dolore magna aliqua. Ut enim ad minim veniam, quis nostrud exercitation ullamco laboris nisi ut aliquip ex ea commodo consequat. Duis aute irure dolor in reprehenderit in voluptate velit esse cillum dolore eu fugiat nulla pariatur. Excepteur sint occaecat cupidatat non proide",
      "initialProposal" : false,
      "reachedQuorumAt" : null,
      "votingEndsAt" : null,
      "createdAt" : "2017-10-27T06:46:46.360+0000",
      "updatedAt" : "2017-10-27T06:46:46.360+0000",
      "createdBy" : {
        "createdAt" : "2017-10-27T06:46:45.264+0000",
        "updatedAt" : "2017-10-27T06:46:45.264+0000",
        "id" : 3,
        "email" : "testuser2@liquido.de",
        "profile" : {
          "name" : "Test User2",
          "website" : "http://www.liquido.de",
          "picture" : "/static/img/Avatar_32x32.jpeg"
        }
      },
      "area" : {
        "createdAt" : "2017-10-27T06:46:45.614+0000",
        "updatedAt" : "2017-10-27T06:46:45.614+0000",
        "id" : 25,
        "title" : "Area 0",
        "description" : "Nice description for test area #0"
      },
      "numSupporters" : 3,
      "title" : "Idea 2 that suggest that we definitely need a longer title for ideas",
      "numCompetingProposals" : 0,
      "supportedByCurrentUser" : false,
      "votingStartsAt" : null,
      "_links" : {
        "self" : {
          "href" : "http://localhost:8080/liquido/v2/laws/43"
        },
        "law" : {
          "href" : "http://localhost:8080/liquido/v2/laws/43{?projection}",
          "templated" : true
        },
        "poll" : {
          "href" : "http://localhost:8080/liquido/v2/laws/43/poll"
        },
        "supporters" : {
          "href" : "http://localhost:8080/liquido/v2/laws/43/supporters"
        },
        "createdBy" : {
          "href" : "http://localhost:8080/liquido/v2/laws/43/createdBy"
        },
        "area" : {
          "href" : "http://localhost:8080/liquido/v2/laws/43/area"
        }
      }
    }, {
      "id" : 44,
      "status" : "IDEA",
      "description" : "JW76K0S7 Lorem ipsum dolor sit amet, consectetur adipiscing elit, sed do eiusmod tempor incididunt ut labore et dolore magna aliqua. Ut enim ad minim veniam, quis nostrud exercitation ullamco laboris nisi ut aliquip",
      "initialProposal" : false,
      "reachedQuorumAt" : null,
      "votingEndsAt" : null,
      "createdAt" : "2017-10-27T06:46:46.380+0000",
      "updatedAt" : "2017-10-27T06:46:46.380+0000",
      "createdBy" : {
        "createdAt" : "2017-10-27T06:46:45.277+0000",
        "updatedAt" : "2017-10-27T06:46:45.277+0000",
        "id" : 4,
        "email" : "testuser3@liquido.de",
        "profile" : {
          "name" : "Test User3",
          "website" : "http://www.liquido.de",
          "picture" : "/static/img/Avatar_32x32.jpeg"
        }
      },
      "area" : {
        "createdAt" : "2017-10-27T06:46:45.614+0000",
        "updatedAt" : "2017-10-27T06:46:45.614+0000",
        "id" : 25,
        "title" : "Area 0",
        "description" : "Nice description for test area #0"
      },
      "numSupporters" : 2,
      "title" : "Idea 3 that suggest that we definitely need a longer title for ideas",
      "numCompetingProposals" : 0,
      "supportedByCurrentUser" : false,
      "votingStartsAt" : null,
      "_links" : {
        "self" : {
          "href" : "http://localhost:8080/liquido/v2/laws/44"
        },
        "law" : {
          "href" : "http://localhost:8080/liquido/v2/laws/44{?projection}",
          "templated" : true
        },
        "poll" : {
          "href" : "http://localhost:8080/liquido/v2/laws/44/poll"
        },
        "supporters" : {
          "href" : "http://localhost:8080/liquido/v2/laws/44/supporters"
        },
        "createdBy" : {
          "href" : "http://localhost:8080/liquido/v2/laws/44/createdBy"
        },
        "area" : {
          "href" : "http://localhost:8080/liquido/v2/laws/44/area"
        }
      }
    }, {
      "id" : 45,
      "status" : "IDEA",
      "description" : "dw7VUqPu Lorem ipsum dolor sit amet, consectetur adipiscing elit, sed do eiusmod tempor incididunt ut labore et dolore mag",
      "initialProposal" : false,
      "reachedQuorumAt" : null,
      "votingEndsAt" : null,
      "createdAt" : "2017-10-27T06:46:46.389+0000",
      "updatedAt" : "2017-10-27T06:46:46.389+0000",
      "createdBy" : {
        "createdAt" : "2017-10-27T06:46:45.285+0000",
        "updatedAt" : "2017-10-27T06:46:45.285+0000",
        "id" : 5,
        "email" : "testuser4@liquido.de",
        "profile" : {
          "name" : "Test User4",
          "website" : "http://www.liquido.de",
          "picture" : "/static/img/Avatar_32x32.jpeg"
        }
      },
      "area" : {
        "createdAt" : "2017-10-27T06:46:45.614+0000",
        "updatedAt" : "2017-10-27T06:46:45.614+0000",
        "id" : 25,
        "title" : "Area 0",
        "description" : "Nice description for test area #0"
      },
      "numSupporters" : 3,
      "title" : "Idea 4 that suggest that we definitely need a longer title for ideas",
      "numCompetingProposals" : 0,
      "supportedByCurrentUser" : false,
      "votingStartsAt" : null,
      "_links" : {
        "self" : {
          "href" : "http://localhost:8080/liquido/v2/laws/45"
        },
        "law" : {
          "href" : "http://localhost:8080/liquido/v2/laws/45{?projection}",
          "templated" : true
        },
        "poll" : {
          "href" : "http://localhost:8080/liquido/v2/laws/45/poll"
        },
        "supporters" : {
          "href" : "http://localhost:8080/liquido/v2/laws/45/supporters"
        },
        "createdBy" : {
          "href" : "http://localhost:8080/liquido/v2/laws/45/createdBy"
        },
        "area" : {
          "href" : "http://localhost:8080/liquido/v2/laws/45/area"
        }
      }
    }, {
      "id" : 46,
      "status" : "IDEA",
      "description" : "Nde32iCk Lorem ipsum dolor sit amet, consectetur adipiscing elit, sed do eiusmod tempor incididunt ut labore et dolore magna aliqua. Ut enim ad minim veniam, quis nostrud exercitation ullamco laboris nisi ut aliquip ex",
      "initialProposal" : false,
      "reachedQuorumAt" : null,
      "votingEndsAt" : null,
      "createdAt" : "2017-10-27T06:46:46.416+0000",
      "updatedAt" : "2017-10-27T06:46:46.416+0000",
      "createdBy" : {
        "createdAt" : "2017-10-27T06:46:45.311+0000",
        "updatedAt" : "2017-10-27T06:46:45.311+0000",
        "id" : 6,
        "email" : "testuser5@liquido.de",
        "profile" : {
          "name" : "Test User5",
          "website" : "http://www.liquido.de",
          "picture" : "/static/img/Avatar_32x32.jpeg"
        }
      },
      "area" : {
        "createdAt" : "2017-10-27T06:46:45.614+0000",
        "updatedAt" : "2017-10-27T06:46:45.614+0000",
        "id" : 25,
        "title" : "Area 0",
        "description" : "Nice description for test area #0"
      },
      "numSupporters" : 3,
      "title" : "Idea 5 that suggest that we definitely need a longer title for ideas",
      "numCompetingProposals" : 0,
      "supportedByCurrentUser" : false,
      "votingStartsAt" : null,
      "_links" : {
        "self" : {
          "href" : "http://localhost:8080/liquido/v2/laws/46"
        },
        "law" : {
          "href" : "http://localhost:8080/liquido/v2/laws/46{?projection}",
          "templated" : true
        },
        "poll" : {
          "href" : "http://localhost:8080/liquido/v2/laws/46/poll"
        },
        "supporters" : {
          "href" : "http://localhost:8080/liquido/v2/laws/46/supporters"
        },
        "createdBy" : {
          "href" : "http://localhost:8080/liquido/v2/laws/46/createdBy"
        },
        "area" : {
          "href" : "http://localhost:8080/liquido/v2/laws/46/area"
        }
      }
    }, {
      "id" : 47,
      "status" : "IDEA",
      "description" : "prXSoDPo Lorem ipsum dolor sit amet, consectetur adipiscing elit, sed do eiusmod tempor incididunt ut labore et dolore magna aliqua. Ut enim ad minim veniam, quis nostrud exercitation ullamco laboris nisi ut aliquip ex ea commodo consequat. Duis aute irure dolor in reprehenderit in voluptate velit esse cillum dolore eu fug",
      "initialProposal" : false,
      "reachedQuorumAt" : null,
      "votingEndsAt" : null,
      "createdAt" : "2017-10-27T06:46:46.585+0000",
      "updatedAt" : "2017-10-27T06:46:46.585+0000",
      "createdBy" : {
        "createdAt" : "2017-10-27T06:46:45.321+0000",
        "updatedAt" : "2017-10-27T06:46:45.321+0000",
        "id" : 7,
        "email" : "testuser6@liquido.de",
        "profile" : {
          "name" : "Test User6",
          "website" : "http://www.liquido.de",
          "picture" : "/static/img/Avatar_32x32.jpeg"
        }
      },
      "area" : {
        "createdAt" : "2017-10-27T06:46:45.614+0000",
        "updatedAt" : "2017-10-27T06:46:45.614+0000",
        "id" : 25,
        "title" : "Area 0",
        "description" : "Nice description for test area #0"
      },
      "numSupporters" : 0,
      "title" : "Idea 6 that suggest that we definitely need a longer title for ideas",
      "numCompetingProposals" : 0,
      "supportedByCurrentUser" : false,
      "votingStartsAt" : null,
      "_links" : {
        "self" : {
          "href" : "http://localhost:8080/liquido/v2/laws/47"
        },
        "law" : {
          "href" : "http://localhost:8080/liquido/v2/laws/47{?projection}",
          "templated" : true
        },
        "poll" : {
          "href" : "http://localhost:8080/liquido/v2/laws/47/poll"
        },
        "supporters" : {
          "href" : "http://localhost:8080/liquido/v2/laws/47/supporters"
        },
        "createdBy" : {
          "href" : "http://localhost:8080/liquido/v2/laws/47/createdBy"
        },
        "area" : {
          "href" : "http://localhost:8080/liquido/v2/laws/47/area"
        }
      }
    }, {
      "id" : 48,
      "status" : "IDEA",
      "description" : "AdASUqit Lorem ipsum dolor sit amet, consectetur adipiscing elit, sed do eiusmod tempor inc",
      "initialProposal" : false,
      "reachedQuorumAt" : null,
      "votingEndsAt" : null,
      "createdAt" : "2017-10-27T06:46:46.600+0000",
      "updatedAt" : "2017-10-27T06:46:46.600+0000",
      "createdBy" : {
        "createdAt" : "2017-10-27T06:46:45.333+0000",
        "updatedAt" : "2017-10-27T06:46:45.333+0000",
        "id" : 8,
        "email" : "testuser7@liquido.de",
        "profile" : {
          "name" : "Test User7",
          "website" : "http://www.liquido.de",
          "picture" : "/static/img/Avatar_32x32.jpeg"
        }
      },
      "area" : {
        "createdAt" : "2017-10-27T06:46:45.614+0000",
        "updatedAt" : "2017-10-27T06:46:45.614+0000",
        "id" : 25,
        "title" : "Area 0",
        "description" : "Nice description for test area #0"
      },
      "numSupporters" : 1,
      "title" : "Idea 7 that suggest that we definitely need a longer title for ideas",
      "numCompetingProposals" : 0,
      "supportedByCurrentUser" : false,
      "votingStartsAt" : null,
      "_links" : {
        "self" : {
          "href" : "http://localhost:8080/liquido/v2/laws/48"
        },
        "law" : {
          "href" : "http://localhost:8080/liquido/v2/laws/48{?projection}",
          "templated" : true
        },
        "poll" : {
          "href" : "http://localhost:8080/liquido/v2/laws/48/poll"
        },
        "supporters" : {
          "href" : "http://localhost:8080/liquido/v2/laws/48/supporters"
        },
        "createdBy" : {
          "href" : "http://localhost:8080/liquido/v2/laws/48/createdBy"
        },
        "area" : {
          "href" : "http://localhost:8080/liquido/v2/laws/48/area"
        }
      }
    }, {
      "id" : 49,
      "status" : "IDEA",
      "description" : "q21qm432 Lorem ipsum dolor sit amet, consectetur adipiscing elit, sed do eiusmod tempor incididunt ut labore et dolore magna aliqua. Ut enim",
      "initialProposal" : false,
      "reachedQuorumAt" : null,
      "votingEndsAt" : null,
      "createdAt" : "2017-10-27T06:46:46.625+0000",
      "updatedAt" : "2017-10-27T06:46:46.625+0000",
      "createdBy" : {
        "createdAt" : "2017-10-27T06:46:45.344+0000",
        "updatedAt" : "2017-10-27T06:46:45.344+0000",
        "id" : 9,
        "email" : "testuser8@liquido.de",
        "profile" : {
          "name" : "Test User8",
          "website" : "http://www.liquido.de",
          "picture" : "/static/img/Avatar_32x32.jpeg"
        }
      },
      "area" : {
        "createdAt" : "2017-10-27T06:46:45.614+0000",
        "updatedAt" : "2017-10-27T06:46:45.614+0000",
        "id" : 25,
        "title" : "Area 0",
        "description" : "Nice description for test area #0"
      },
      "numSupporters" : 1,
      "title" : "Idea 8 that suggest that we definitely need a longer title for ideas",
      "numCompetingProposals" : 0,
      "supportedByCurrentUser" : false,
      "votingStartsAt" : null,
      "_links" : {
        "self" : {
          "href" : "http://localhost:8080/liquido/v2/laws/49"
        },
        "law" : {
          "href" : "http://localhost:8080/liquido/v2/laws/49{?projection}",
          "templated" : true
        },
        "poll" : {
          "href" : "http://localhost:8080/liquido/v2/laws/49/poll"
        },
        "supporters" : {
          "href" : "http://localhost:8080/liquido/v2/laws/49/supporters"
        },
        "createdBy" : {
          "href" : "http://localhost:8080/liquido/v2/laws/49/createdBy"
        },
        "area" : {
          "href" : "http://localhost:8080/liquido/v2/laws/49/area"
        }
      }
    }, {
      "id" : 50,
      "status" : "IDEA",
      "description" : "AkIvpOhe Lorem ipsum dolor sit amet, consectetur adipiscing elit, sed do eiusmod tempor incididunt ut labore et dolore m",
      "initialProposal" : false,
      "reachedQuorumAt" : null,
      "votingEndsAt" : null,
      "createdAt" : "2017-10-27T06:46:46.632+0000",
      "updatedAt" : "2017-10-27T06:46:46.632+0000",
      "createdBy" : {
        "createdAt" : "2017-10-27T06:46:45.354+0000",
        "updatedAt" : "2017-10-27T06:46:45.354+0000",
        "id" : 10,
        "email" : "testuser9@liquido.de",
        "profile" : {
          "name" : "Test User9",
          "website" : "http://www.liquido.de",
          "picture" : "/static/img/Avatar_32x32.jpeg"
        }
      },
      "area" : {
        "createdAt" : "2017-10-27T06:46:45.614+0000",
        "updatedAt" : "2017-10-27T06:46:45.614+0000",
        "id" : 25,
        "title" : "Area 0",
        "description" : "Nice description for test area #0"
      },
      "numSupporters" : 1,
      "title" : "Idea 9 that suggest that we definitely need a longer title for ideas",
      "numCompetingProposals" : 0,
      "supportedByCurrentUser" : false,
      "votingStartsAt" : null,
      "_links" : {
        "self" : {
          "href" : "http://localhost:8080/liquido/v2/laws/50"
        },
        "law" : {
          "href" : "http://localhost:8080/liquido/v2/laws/50{?projection}",
          "templated" : true
        },
        "poll" : {
          "href" : "http://localhost:8080/liquido/v2/laws/50/poll"
        },
        "supporters" : {
          "href" : "http://localhost:8080/liquido/v2/laws/50/supporters"
        },
        "createdBy" : {
          "href" : "http://localhost:8080/liquido/v2/laws/50/createdBy"
        },
        "area" : {
          "href" : "http://localhost:8080/liquido/v2/laws/50/area"
        }
      }
    } ]
  },
  "_links" : {
    "first" : {
      "href" : "http://localhost:8080/liquido/v2/laws/search/findByStatus?status=IDEA&page=0&size=20"
    },
    "self" : {
      "href" : "http://localhost:8080/liquido/v2/laws/search/findByStatus?status=IDEA"
    },
    "next" : {
      "href" : "http://localhost:8080/liquido/v2/laws/search/findByStatus?status=IDEA&page=1&size=20"
    },
    "last" : {
      "href" : "http://localhost:8080/liquido/v2/laws/search/findByStatus?status=IDEA&page=5&size=20"
    }
  },
  "page" : {
    "size" : 10,
    "totalElements" : 111,
    "totalPages" : 12,
    "number" : 0
  }
}